Cyclistic Bike Share Case Study
…
QUESTION: Examining difference in number of rides per month

To begin, I wanted to look at the number of rides per month by members and casual riders, and the average duration of each ride. The first piece of code gives a summary view of the number of rides and average duration by members and casual riders per month. The second piece of code shows a visual of that summary.

# number of rides per month
all_trips_sorted %>% 
  mutate(month = lubridate::month(started_at, label=TRUE)) %>% 
  group_by(member_casual, month) %>% 
  summarise(number_of_rides = n(), avg_duration=mean(ride_length)) %>% 
  arrange(member_casual)

## `summarise()` has grouped output by 'member_casual'. You can override using the `.groups` argument.

## # A tibble: 24 x 4
## # Groups:   member_casual [2]
##    member_casual month number_of_rides avg_duration
##    <chr>         <ord>           <int>        <dbl>
##  1 casual        Jan             15894        1545.
##  2 casual        Feb              9161        2836.
##  3 casual        Mar             78757        2280.
##  4 casual        Apr            125994        2278.
##  5 casual        May            230839        2333.
##  6 casual        Jun            327306        2261.
##  7 casual        Jul            393881        1967.
##  8 casual        Aug            283347        2667.
##  9 casual        Sep            220406        2300.
## 10 casual        Oct            130402        1861.
## # ... with 14 more rows
…
Member ridership, however, has a higher max distance (30.27 miles to 21.15 miles)

QUESTION: Seeing if there is a popular start/end station between members and casuals

Columns of interest also included the start/end stations and with their geo data (lat/lng). Thus, it would be good to view where casual riders and members start/end their ride. The first couple pieces of code look at the most popular start/end stations by casual riders and members, while the third piece of code filters out the end stations that are not specified. The following pieces of code focus in on geo locations of the start stations, along with the non-specified end stations. There was more of a focus on non-specified end stations to possibly see if there are potential new stations to put in based on how numerous a given location appears.

# Looking into what is the most popular start stations between members and casuals
popular_start <- all_trips_sorted %>% 
  group_by(member_casual,start_station_name) %>% 
  count() %>% 
  arrange(desc(n))
popular_start

## # A tibble: 1,453 x 3
## # Groups:   member_casual, start_station_name [1,453]
##    member_casual start_station_name             n
##    <chr>         <chr>                      <int>
##  1 casual        Streeter Dr & Grand Ave    52218
##  2 casual        Lake Shore Dr & Monroe St  31638
##  3 casual        Millennium Park            29991
##  4 casual        Michigan Ave & Oak St      25681
##  5 member        Clark St & Elm St          24327
##  6 casual        Theater on the Lake        22323
##  7 casual        Lake Shore Dr & North Blvd 22173
##  8 member        Wells St & Concord Ln      20547
##  9 member        Kingsbury St & Kinzie St   19869
## 10 casual        Shedd Aquarium             19390
## # ... with 1,443 more rows

# Looking into what is the most popular end stations between members and casuals
popular_end <- all_trips_sorted %>% 
  filter(!is.na(end_station_name)) %>% 
  group_by(member_casual, end_station_name) %>% 
  count() %>% 
  arrange(desc(n))
popular_end

## # A tibble: 1,439 x 3
## # Groups:   member_casual, end_station_name [1,439]
##    member_casual end_station_name               n
##    <chr>         <chr>                      <int>
##  1 casual        Streeter Dr & Grand Ave    54693
##  2 casual        Millennium Park            30724
##  3 casual        Lake Shore Dr & Monroe St  29774
##  4 casual        Michigan Ave & Oak St      26332
##  5 casual        Lake Shore Dr & North Blvd 25121
##  6 casual        Theater on the Lake        24287
##  7 member        Clark St & Elm St          24125
##  8 member        Wells St & Concord Ln      20558
##  9 member        Kingsbury St & Kinzie St   19725
## 10 member        Dearborn St & Erie St      18204
## # ... with 1,429 more rows
…
popular_bike_month <- all_trips_sorted %>% 
  group_by(rideable_type, member_casual,month) %>% 
  count() %>% 
  arrange(member_casual, desc(n))
popular_bike_month

## # A tibble: 58 x 4
## # Groups:   rideable_type, member_casual, month [58]
##    rideable_type member_casual month      n
##    <chr>         <chr>         <chr>  <int>
##  1 docked_bike   casual        08    259621
##  2 classic_bike  casual        07    240899
##  3 classic_bike  casual        06    187717
##  4 docked_bike   casual        09    170834
##  5 classic_bike  casual        05    123611
##  6 electric_bike casual        07     95284
##  7 electric_bike casual        06     87873
##  8 docked_bike   casual        10     79226
##  9 classic_bike  casual        04     70589
## 10 electric_bike casual        05     63875
## # ... with 48 more rows
…
